Using APIs in R to obtain Indicators for visualizations
…
)
detailed_forecast

# A tibble: 156 × 2
   time                      temp_F
   <chr>                      <int>
 1 2025-11-04T16:00:00-05:00     62
 2 2025-11-04T17:00:00-05:00     59
 3 2025-11-04T18:00:00-05:00     57
 4 2025-11-04T19:00:00-05:00     55
 5 2025-11-04T20:00:00-05:00     51
 6 2025-11-04T21:00:00-05:00     50
 7 2025-11-04T22:00:00-05:00     48
 8 2025-11-04T23:00:00-05:00     48
 9 2025-11-05T00:00:00-05:00     47
10 2025-11-05T01:00:00-05:00     46
# ℹ 146 more rows
…
detailed_forecast <- forecast_response %>% resp_body_json() %>% 
  pluck('properties','periods') %>% 
  map_dfr( 
    \(x){
      tibble(
        time = x %>% pluck('startTime'),
        temp_F = x %>%  pluck('temperature')
      )
    }
  
)
detailed_forecast

# A tibble: 156 × 2
   time                      temp_F
   <chr>                      <int>
 1 2025-11-04T16:00:00-05:00     62
 2 2025-11-04T17:00:00-05:00     59
 3 2025-11-04T18:00:00-05:00     57
 4 2025-11-04T19:00:00-05:00     55
 5 2025-11-04T20:00:00-05:00     51
 6 2025-11-04T21:00:00-05:00     50
 7 2025-11-04T22:00:00-05:00     48
 8 2025-11-04T23:00:00-05:00     48
 9 2025-11-05T00:00:00-05:00     47
10 2025-11-05T01:00:00-05:00     46
# ℹ 146 more rows
…
